%YAML 1.1
%TAG !u! tag:unity3d.com,2011:
--- !u!114 &11400000
MonoBehaviour:
  m_ObjectHideFlags: 0
  m_CorrespondingSourceObject: {fileID: 0}
  m_PrefabInstance: {fileID: 0}
  m_PrefabAsset: {fileID: 0}
  m_GameObject: {fileID: 0}
  m_Enabled: 1
  m_EditorHideFlags: 0
  m_Script: {fileID: 11500000, guid: 84215d4427008924ebae4389d3e197e6, type: 3}
  m_Name: __actions_default_in_SkeletonRightHand
  m_EditorClassIdentifier: 
  changeTolerance: 0.000001
  fullPath: /actions/default/in/SkeletonRightHand
  actionSet: {fileID: 11400000, guid: 400d6be97685286458a2c2a1d0eb88d2, type: 2}
  direction: 0
